0,99,1,0,0
0,99,0,0,0
0,58,0,0,0
0,0,0,15,15
0,7,1,0,0
0,1,3,4,4
0,7,3,0,0
2,9,49,0,0
2,9,45,0,0
2,9,43,0,0
2,9,42,0,0
2,9,39,0,0
2,9,31,0,0
2,9,27,0,0
2,9,24,0,0
2,9,19,0,0
2,9,12,0,0
2,9,11,0,0
2,9,6,0,0
2,9,1,0,0
0,65,1,5,5 North show1 is diamonds (5)
1,66,5,3,3 East show1 is 5332 distribution
3,64,12,0,0 West show1 is 12 hcps
0,89,0,0,0
;0,98,4,0,100
;0,94,0,0,100
;0,89,0,0,0 print constraints
0,86,42,2,0 contract is 4H by south, undoubled 
3,76,51,0,0 check a play from west for round 1 seat 0; all zero based
0,76,41,0,1                   north
1,76,40,0,2                   east
2,74,0,0,3  get a play from south
3,76,50,1,0 check a play from west
0,76,44,1,1 check a play from north
1,76,46,1,2 check a play from east
2,74,0,1,3  get a play from south
;0,89,0,0,0 print constraints after a play has been made
;0,92,0,0,0 get playing hand
;0,98,4,0,10 generate 10 hands 
;0,94,0,0,10 print the 10 hands

